Scanner Type,Scanner Name,Vulnerability,Details,Additional Info,Severity,CVE
container_scanning,Clair,CVE-2017-16997 in glibc,,CVE-2017-16997 in glibc,critical,CVE-2017-16997
container_scanning,Clair,CVE-2017-18269 in glibc,,CVE-2017-18269 in glibc,critical,CVE-2017-18269
container_scanning,Clair,CVE-2018-1000001 in glibc,,CVE-2018-1000001 in glibc,high,CVE-2018-1000001
container_scanning,Clair,CVE-2016-10228 in glibc,,CVE-2016-10228 in glibc,medium,CVE-2016-10228
container_scanning,Clair,CVE-2010-4052 in glibc,,CVE-2010-4052 in glibc,low,CVE-2010-4052
container_scanning,Clair,CVE-2018-18520 in elfutils,,CVE-2018-18520 in elfutils,low,CVE-2018-18520
container_scanning,Clair,CVE-2018-16869 in nettle,,CVE-2018-16869 in nettle,unknown,CVE-2018-16869
dependency_scanning,Gemnasium,Regular Expression Denial of Service in debug,,Regular Expression Denial of Service in debug,unknown,yarn.lock:debug:gemnasium:37283ed4-0380-40d7-ada7-2d994afcc62a
dependency_scanning,Gemnasium,Authentication bypass via incorrect DOM traversal and canonicalization in saml2-js,,Authentication bypass via incorrect DOM traversal and canonicalization in saml2-js,unknown,yarn.lock:saml2-js:gemnasium:9952e574-7b5b-46fa-a270-aeb694198a98
sast,Find Security Bugs,Predictable pseudorandom number generator,,Predictable pseudorandom number generator,medium,818bf5dacb291e15d9e6dc3c5ac32178:PREDICTABLE_RANDOM:src/main/java/com/gitlab/security_products/tests/App.java:47
sast,Find Security Bugs,Cipher with no integrity,,Cipher with no integrity,medium,e6449b89335daf53c0db4c0219bc1634:CIPHER_INTEGRITY:src/main/java/com/gitlab/security_products/tests/App.java:29
sast,Find Security Bugs,Predictable pseudorandom number generator,,Predictable pseudorandom number generator,medium,e8ff1d01f74cd372f78da8f5247d3e73:PREDICTABLE_RANDOM:src/main/java/com/gitlab/security_products/tests/App.java:41
sast,Find Security Bugs,ECB mode is insecure,,ECB mode is insecure,medium,ea0f905fc76f2739d5f10a1fd1e37a10:ECB_MODE:src/main/java/com/gitlab/security_products/tests/App.java:29
